<svg width="64" height="64" xmlns="http://www.w3.org/2000/svg">

 <g>
  <title>background</title>
  <rect fill="none" id="canvas_background" height="402" width="582" y="-1" x="-1"/>
 </g>
 <g>
  <title>Layer 1</title>
  <circle fill="#ffcb04" id="svg_2" r="32" cy="32" cx="32" class="st35"/>
  <circle fill="#ffffff" id="svg_4" r="21.7" cy="32" cx="32" class="st3"/>
  <path fill="none" id="svg_5" d="m51.7,32c0,10.9 -8.9,19.7 -19.7,19.7s-19.7,-8.8 -19.7,-19.7c0,-10.9 8.9,-19.7 19.7,-19.7s19.7,8.8 19.7,19.7z" class="st62"/>
  <path fill="#b3b4b7" id="svg_6" d="m56,32c0,13.2 -10.8,24 -24,24c1.2,0 2.1,-1 2.1,-2.1c0,-1.2 -1,-2.1 -2.1,-2.1c10.9,0 19.7,-8.9 19.7,-19.7c0,-10.9 -8.9,-19.7 -19.7,-19.7c-1.2,0 -2.1,-1 -2.1,-2.1c0,-1.3 0.9,-2.3 2.1,-2.3c13.2,0 24,10.8 24,24z" class="st14"/>
  <path fill="#e0e1e5" id="svg_7" d="m34.1,53.9c0,1.2 -1,2.1 -2.1,2.1c-13.2,0 -24,-10.8 -24,-24c0,-13.2 10.8,-24 24,-24c-1.2,0 -2.1,1 -2.1,2.1c0,1.2 1,2.1 2.1,2.1c-10.9,0 -19.7,8.9 -19.7,19.7c0,10.9 8.9,19.7 19.7,19.7c1.2,0.1 2.1,1.1 2.1,2.3z" class="st12"/>
  <path fill="none" id="svg_8" d="m46,32c0,7.7 -6.3,14 -14,14s-14,-6.3 -14,-14c0,-7.7 6.3,-14 14,-14s14,6.3 14,14z" class="st62"/>
  <path fill="#474e5e" id="svg_9" d="m32,13.8c10,0 18.2,8.2 18.2,18.2c0,-1.2 -1,-2.1 -2.1,-2.1c-1.2,0 -2.1,1 -2.1,2.1c0,-7.7 -6.3,-14 -14,-14c-7.7,0 -14,6.3 -14,14c0,1.2 -1,2.1 -2.1,2.1c-1.2,0 -2.1,-1 -2.1,-2.1c0,-10 8.2,-18.2 18.2,-18.2z" class="st1"/>
  <path fill="#2e3545" id="svg_10" d="m48.1,29.9c1.2,0 2.1,1 2.1,2.1c0,10 -8.2,18.2 -18.2,18.2c-10,0 -18.2,-8.2 -18.2,-18.2c0,1.2 1,2.1 2.1,2.1c1.2,0 2.1,-1 2.1,-2.1c0,7.7 6.3,14 14,14c7.7,0 14,-6.3 14,-14c0,-1.2 0.9,-2.1 2.1,-2.1z" class="st25"/>
  <path fill="none" id="svg_11" d="m40.2,32c0,4.5 -3.7,8.2 -8.2,8.2s-8.2,-3.7 -8.2,-8.2c0,-4.5 3.7,-8.2 8.2,-8.2s8.2,3.7 8.2,8.2z" class="st62"/>
  <path fill="#33d3f4" id="svg_12" d="m44.4,32c0,6.9 -5.6,12.4 -12.4,12.4c1.2,0 2.1,-1 2.1,-2.1c0,-1.2 -1,-2.1 -2.1,-2.1c4.5,0 8.2,-3.7 8.2,-8.2c0,-4.5 -3.7,-8.2 -8.2,-8.2c-1.2,0 -2.1,-1 -2.1,-2.1c0,-1.2 1,-2.1 2.1,-2.1c6.9,0 12.4,5.6 12.4,12.4z" class="st22"/>
  <path fill="#00a8ea" id="svg_13" d="m34.1,42.3c0,1.2 -1,2.1 -2.1,2.1c-6.9,0 -12.4,-5.6 -12.4,-12.4c0,-6.9 5.6,-12.4 12.4,-12.4c-1.2,0 -2.1,1 -2.1,2.1c0,1.2 1,2.1 2.1,2.1c-4.5,0 -8.2,3.7 -8.2,8.2c0,4.5 3.7,8.2 8.2,8.2c1.2,0 2.1,0.9 2.1,2.1z" class="st21"/>
  <path fill="none" id="svg_14" d="m34.4,32c0,1.3 -1.1,2.4 -2.4,2.4s-2.4,-1.1 -2.4,-2.4c0,-1.3 1.1,-2.4 2.4,-2.4s2.4,1.1 2.4,2.4z" class="st62"/>
  <path fill="#eb5151" id="svg_15" d="m27.5,34.1c-1.2,0 -2.1,-1 -2.1,-2.1c0,-3.7 3,-6.6 6.6,-6.6c3.7,0 6.6,3 6.6,6.6c0,-1.2 -1,-2.1 -2.1,-2.1c-1.2,0 -2.1,1 -2.1,2.1c0,-1.3 -1.1,-2.4 -2.4,-2.4c-1.3,0 -2.4,1.1 -2.4,2.4c0,1.2 -0.9,2.1 -2.1,2.1z" class="st7"/>
  <path fill="#c64444" id="svg_16" d="m32,38.6c-3.7,0 -6.6,-3 -6.6,-6.6c0,1.2 1,2.1 2.1,2.1c1.2,0 2.1,-1 2.1,-2.1c0,1.3 1.1,2.4 2.4,2.4c1.3,0 2.4,-1.1 2.4,-2.4c0,-1.2 1,-2.1 2.1,-2.1c1.2,0 2.1,1 2.1,2.1c0,3.7 -2.9,6.6 -6.6,6.6z" class="st8"/>
 </g>
</svg>